A7
…
most_recent_data

# A tibble: 50 × 7
# Groups:   PatientID [50]
   PatientID ICULOS    HR  Temp  Resp SepsisLabel obsTime            
   <chr>      <dbl> <dbl> <dbl> <dbl>       <dbl> <dttm>             
 1 000108        47    96  NA      22           0 2023-04-11 17:00:47
 2 000130        47    89  37.8    22           0 2023-04-11 17:33:49
 3 000735        34    73  NA      19           0 2023-04-11 02:41:18
 4 001045        54    NA  NA      NA           0 2023-04-11 23:30:22
 5 001392        38    66  NA      12           0 2023-04-11 08:53:17
 6 001603        53    95  37.7    24           0 2023-04-11 23:53:09
 7 002157        23    NA  NA      NA           0 2023-04-10 17:39:48
 8 002236        20    76  NA      NA           0 2023-04-10 13:44:42
 9 002251        35    89  NA      23           0 2023-04-11 05:39:15
10 002831        16    78  36.6    17           0 2023-04-10 10:40:39
# ℹ 40 more rows
…
